…
``` r
#Data by full aggregated means
REdat.IDanalysismeans <- REdat.means %>% 
  filter(((Condition == "Global Congruent"| Condition == "Local Congruent") &
                              (RunPosition == "6" | RunPosition== "2")) | 
                              (StimuliType == "Incongruent Stimuli with Target"))

REdat.IDanalysismeans %>% 
  select(ID, Condition, RunPosition, RT_Mu, RT_Sigma, RT_n)
```

    ## # A tibble: 240 x 6
    ##       ID Condition               RunPosition RT_Mu RT_Sigma  RT_n
    ##    <dbl> <chr>                         <dbl> <dbl>    <dbl> <dbl>
    ##  1     1 Global Congruent                  2  395.    126.     20
    ##  2     1 Global Congruent                  6  336.     99.4    20
    ##  3     1 Global Incongruent at 2           2  476.    275.     20
    ##  4     1 Global Incongruent at 6           6  310.    138.     20
    ##  5     1 Local Congruent                   2  436.    117.     19
    ##  6     1 Local Congruent                   6  408.    114.     18
    ##  7     1 Local Incongruent at 2            2  523.    220.     20
    ##  8     1 Local Incongruent at 6            6  454.    143.     20
    ##  9     2 Global Congruent                  2  209.    103.     20
    ## 10     2 Global Congruent                  6  224.     75.3    20
    ## # ... with 230 more rows
…
``` r
#Data by full aggregated means
REdat.IDanalysismeans.congruency <- REdat.IDanalysismeans %>%
   select(ID, Globality, StimuliType,RunPosition, RT_Mu) %>% 
   pivot_wider(id_cols = c(-StimuliType, -RT_Mu), 
              names_from = StimuliType,
              values_from = RT_Mu) %>% 
  mutate(Congruence_Effect = `Incongruent Stimuli with Target` - `Congruent Stimuli with Target`)

REdat.IDanalysismeans.congruency
```

    ## # A tibble: 120 x 6
    ##       ID Globality RunPosition `Congruent Stim~ `Incongruent St~
    ##    <dbl> <chr>           <dbl>            <dbl>            <dbl>
    ##  1     1 Global              2             395.             476.
    ##  2     1 Global              6             336.             310.
    ##  3     1 Local               2             436.             523.
    ##  4     1 Local               6             408.             454.
    ##  5     2 Global              2             209.             219.
    ##  6     2 Global              6             224.             254.
    ##  7     2 Local               2             230.             206.
    ##  8     2 Local               6             232.             229.
    ##  9     3 Global              2             252.             321.
    ## 10     3 Global              6             243.             236.
    ## # ... with 110 more rows, and 1 more variable: Congruence_Effect <dbl>
…
