…
``` r
#Filter to look at critical data points
REdat.analysis <- REdat.full %>% 
  filter(((Condition == "Global Congruent"| Condition == "Local Congruent") &
                              (RunPosition == "6" | RunPosition== "2")) | 
                              (StimuliType == "Incongruent Stimuli with Target"))

REdat.analysis %>% 
  select(ID, Condition, RunPosition, RT)
```

    ## # A tibble: 4,734 x 4
    ##    ID    Condition               RunPosition    RT
    ##    <fct> <chr>                   <fct>       <dbl>
    ##  1 2     Local Incongruent at 6  6               7
    ##  2 9     Global Congruent        6               7
    ##  3 9     Global Incongruent at 6 6               7
    ##  4 9     Global Congruent        2               7
    ##  5 19    Global Incongruent at 6 6               7
    ##  6 20    Global Congruent        6               7
    ##  7 21    Global Congruent        6               7
    ##  8 21    Global Congruent        2               7
    ##  9 23    Global Congruent        2               7
    ## 10 24    Local Incongruent at 6  6               7
    ## # ... with 4,724 more rows
…
``` r
#Data by full aggregated means
REdat.IDanalysismeans <- REdat.means %>% 
  filter(((Condition == "Global Congruent"| Condition == "Local Congruent") &
                              (RunPosition == "6" | RunPosition== "2")) | 
                              (StimuliType == "Incongruent Stimuli with Target"))

REdat.IDanalysismeans %>% 
  select(ID, Condition, RunPosition, RT_Mu, RT_Sigma, RT_n)
```

    ## # A tibble: 240 x 6
    ##       ID Condition               RunPosition RT_Mu RT_Sigma  RT_n
    ##    <dbl> <chr>                         <dbl> <dbl>    <dbl> <dbl>
    ##  1     1 Global Congruent                  2  395.    126.     20
    ##  2     1 Global Congruent                  6  336.     99.4    20
    ##  3     1 Global Incongruent at 2           2  476.    275.     20
    ##  4     1 Global Incongruent at 6           6  310.    138.     20
    ##  5     1 Local Congruent                   2  436.    117.     19
    ##  6     1 Local Congruent                   6  408.    114.     18
    ##  7     1 Local Incongruent at 2            2  523.    220.     20
    ##  8     1 Local Incongruent at 6            6  454.    143.     20
    ##  9     2 Global Congruent                  2  209.    103.     20
    ## 10     2 Global Congruent                  6  224.     75.3    20
    ## # ... with 230 more rows
…
