HW3
…
    Total_intel = sum(c_across(intel1 : intel10), 
                      na.rm = TRUE
                      ),
    Total_open = sum(c_across(open1 : open10), 
                     na.rm = TRUE
                     )
    ) %>% 
  select(id2,
         Total_green,
         Total_comp,
         Total_intel,
         Total_open
         )

## # A tibble: 373 x 5
## # Groups:   id2 [373]
##    id2   Total_green Total_comp Total_intel Total_open
##    <chr>       <dbl>      <dbl>       <dbl>      <dbl>
##  1 9099           20         37          28         35
##  2 6275           11         48          35         31
##  3 8116           20         44          36         39
##  4 8586           19         46          30         39
##  5 0406           19         40          37         37
##  6 5645           18         42          38         38
##  7 3788            9         30          30         30
##  8 8424           13         19          43         18
##  9 8450           18         42          40         39
## 10 0512           22         38          37         38
## # ... with 363 more rows
…
Q3set.1

## # A tibble: 373 x 5
## # Groups:   id2 [373]
##    id2   Total_green Total_comp Total_intel Total_open
##    <chr>       <dbl>      <dbl>       <dbl>      <dbl>
##  1 9099           80         74          56         70
##  2 6275           44         96          70         62
##  3 8116           80         88          72         78
##  4 8586           76         92          60         78
##  5 0406           76         80          74         74
##  6 5645           72         84          76         76
##  7 3788           36         60          60         60
##  8 8424           52         38          86         36
##  9 8450           72         84          80         78
## 10 0512           88         76          74         76
## # ... with 363 more rows
…
